Assignment 8
…
1. Fit a separate linear model of log10(gdpPercap) on year for each country.

Import gapminder package

library(gapminder)

Generate the nested data by country and continent.

gap_nested <- gapminder %>%
  group_by(country, continent) %>%
  nest()
gap_nested

## # A tibble: 142 x 3
## # Groups:   country, continent [142]
##    country     continent data             
##    <fct>       <fct>     <list>           
##  1 Afghanistan Asia      <tibble [12 x 4]>
##  2 Albania     Europe    <tibble [12 x 4]>
##  3 Algeria     Africa    <tibble [12 x 4]>
##  4 Angola      Africa    <tibble [12 x 4]>
##  5 Argentina   Americas  <tibble [12 x 4]>
##  6 Australia   Oceania   <tibble [12 x 4]>
##  7 Austria     Europe    <tibble [12 x 4]>
##  8 Bahrain     Asia      <tibble [12 x 4]>
##  9 Bangladesh  Asia      <tibble [12 x 4]>
## 10 Belgium     Europe    <tibble [12 x 4]>
## # ... with 132 more rows

Fit a linear model on each country

gap_nested_lm <- gap_nested %>%
  mutate(model = map(data, ~lm(log10(gdpPercap) ~ year, data = .)))
gap_nested_lm

## # A tibble: 142 x 4
## # Groups:   country, continent [142]
##    country     continent data              model 
##    <fct>       <fct>     <list>            <list>
##  1 Afghanistan Asia      <tibble [12 x 4]> <lm>  
##  2 Albania     Europe    <tibble [12 x 4]> <lm>  
##  3 Algeria     Africa    <tibble [12 x 4]> <lm>  
##  4 Angola      Africa    <tibble [12 x 4]> <lm>  
##  5 Argentina   Americas  <tibble [12 x 4]> <lm>  
##  6 Australia   Oceania   <tibble [12 x 4]> <lm>  
##  7 Austria     Europe    <tibble [12 x 4]> <lm>  
##  8 Bahrain     Asia      <tibble [12 x 4]> <lm>  
##  9 Bangladesh  Asia      <tibble [12 x 4]> <lm>  
## 10 Belgium     Europe    <tibble [12 x 4]> <lm>  
## # ... with 132 more rows

2. Plot residuals against time, showing separate lines for each country in the same plot. Also, do this separately for each continent.

Compute and add the residuals to the tibble

gap_nested_lm_resid <- gap_nested_lm %>%
  mutate(resid = map2(data, model, add_residuals)) %>%
  unnest(resid)
gap_nested_lm_resid

## # A tibble: 1,704 x 9
## # Groups:   country, continent [142]
##    country     continent data     model   year lifeExp    pop gdpPercap    resid
##    <fct>       <fct>     <list>   <list> <int>   <dbl>  <int>     <dbl>    <dbl>
##  1 Afghanistan Asia      <tibble> <lm>    1952    28.8 8.43e6      779. -0.0202 
##  2 Afghanistan Asia      <tibble> <lm>    1957    30.3 9.24e6      821.  0.00433
##  3 Afghanistan Asia      <tibble> <lm>    1962    32.0 1.03e7      853.  0.0231 
##  4 Afghanistan Asia      <tibble> <lm>    1967    34.0 1.15e7      836.  0.0164 
##  5 Afghanistan Asia      <tibble> <lm>    1972    36.1 1.31e7      740. -0.0347 
##  6 Afghanistan Asia      <tibble> <lm>    1977    38.4 1.49e7      786. -0.00641
##  7 Afghanistan Asia      <tibble> <lm>    1982    39.9 1.29e7      978.  0.0905 
##  8 Afghanistan Asia      <tibble> <lm>    1987    40.8 1.39e7      852.  0.0328 
##  9 Afghanistan Asia      <tibble> <lm>    1992    41.7 1.63e7      649. -0.0834 
## 10 Afghanistan Asia      <tibble> <lm>    1997    41.8 2.22e7      635. -0.0909 
## # ... with 1,694 more rows
…
Read edges files and convert to tibble

links <- read.csv(
  "Dataset1-Media-Example-EDGES.csv",
  header = T,
  as.is = T
) %>%
  as_tibble()
links

## # A tibble: 49 x 4
##    from  to    type      weight
##    <chr> <chr> <chr>      <int>
##  1 s01   s02   hyperlink     22
##  2 s01   s03   hyperlink     22
##  3 s01   s04   hyperlink     21
##  4 s01   s15   mention       20
##  5 s02   s01   hyperlink     23
##  6 s02   s03   hyperlink     21
##  7 s02   s09   hyperlink      1
##  8 s02   s10   hyperlink      5
##  9 s03   s01   hyperlink     21
## 10 s03   s04   hyperlink     22
## # ... with 39 more rows
…
Scrape the country-wise population data from https://www.worldometers.info/world-population/population-by-country/. Plot the population density (\(P/Km^2\)) obtained from this table on a country-wise choropleth map. Make sure to

1. Clean the data to make it compatible with the country-wise world choropleth map

Scrape the data

url <- "https://www.worldometers.info/world-population/population-by-country/"
country_population <- url %>%
  read_html() %>%
  html_nodes("table") %>%
  html_table(fill = TRUE) %>%
  .[[1]]
country_population

## # A tibble: 235 x 12
##      `#` `Country (or dependency)` `Population (2~` `Yearly Change` `Net Change`
##    <int> <chr>                     <chr>            <chr>           <chr>       
##  1     1 China                     1,439,323,776    0.39 %          5,540,090   
##  2     2 India                     1,380,004,385    0.99 %          13,586,631  
##  3     3 United States             331,002,651      0.59 %          1,937,734   
##  4     4 Indonesia                 273,523,615      1.07 %          2,898,047   
##  5     5 Pakistan                  220,892,340      2.00 %          4,327,022   
##  6     6 Brazil                    212,559,417      0.72 %          1,509,890   
##  7     7 Nigeria                   206,139,589      2.58 %          5,175,990   
##  8     8 Bangladesh                164,689,383      1.01 %          1,643,222   
##  9     9 Russia                    145,934,462      0.04 %          62,206      
## 10    10 Mexico                    128,932,753      1.06 %          1,357,224   
## # ... with 225 more rows, and 7 more variables: `Density (P/Km2)` <chr>,
## #   `Land Area (Km2)` <chr>, `Migrants (net)` <chr>, `Fert. Rate` <chr>,
## #   `Med. Age` <chr>, `Urban Pop %` <chr>, `World Share` <chr>
…
country_population

## # A tibble: 235 x 12
##      `#` `Country (or dependency)` `Population (2~` `Yearly Change` `Net Change`
##    <int> <chr>                                <int>           <dbl>        <int>
##  1     1 china                           1439323776            0.39      5540090
##  2     2 india                           1380004385            0.99     13586631
##  3     3 united states                    331002651            0.59      1937734
##  4     4 indonesia                        273523615            1.07      2898047
##  5     5 pakistan                         220892340            2         4327022
##  6     6 brazil                           212559417            0.72      1509890
##  7     7 nigeria                          206139589            2.58      5175990
##  8     8 bangladesh                       164689383            1.01      1643222
##  9     9 russia                           145934462            0.04        62206
## 10    10 mexico                           128932753            1.06      1357224
## # ... with 225 more rows, and 7 more variables: `Density (P/Km2)` <int>,
## #   `Land Area (Km2)` <int>, `Migrants (net)` <int>, `Fert. Rate` <dbl>,
## #   `Med. Age` <int>, `Urban Pop %` <int>, `World Share` <dbl>
…
4. List the countries, if any, in the choropleth country data frame that do not appear in the scraped data frame (after appropriate clearning)

setdiff(
  country_population$`Country (or dependency)`,
  country.regions$region
) %>%
  as_tibble_col(column_name = "region")

## # A tibble: 69 x 1
##    region            
##    <chr>             
##  1 hong kong         
##  2 singapore         
##  3 state of palestine
##  4 puerto rico       
##  5 bahrain           
##  6 mauritius         
##  7 eswatini          
##  8 runion           
##  9 comoros           
## 10 macao             
## # ... with 59 more rows
…
nj_median_household_income_and_rental

## # A tibble: 2,181 x 7
##    GEOID       NAME                   geometry estimate_medinc~ estimate_medren~
##    <chr>       <chr> <MULTIPOLYGON [arc_degre>            <dbl>            <dbl>
##  1 34021002200 Cens~ (((-74.74945 40.22568, -~            54860             1121
##  2 34021004404 Cens~ (((-74.50135 40.25484, -~           100282             1685
##  3 34021000600 Cens~ (((-74.74294 40.21703, -~            66029             1180
##  4 34021001200 Cens~ (((-74.81737 40.24094, -~            49659             1163
##  5 34025805700 Cens~ (((-74.01226 40.30434, -~            57823             1199
##  6 34025809703 Cens~ (((-74.29578 40.3226, -7~           130705             2262
##  7 34025807004 Cens~ (((-74.00926 40.23071, -~            52440             1210
##  8 34025810300 Cens~ (((-74.3717 40.29863, -7~            84091             1691
##  9 34025806504 Cens~ (((-74.05513 40.25025, -~            72267             1200
## 10 34025802500 Cens~ (((-74.23142 40.44554, -~            97232             1136
## # ... with 2,171 more rows, and 2 more variables: moe_medincome <dbl>,
## #   moe_medrental <dbl>
…
Define the bi-class

nj_median_household_income_and_rental <- nj_median_household_income_and_rental %>%
  bi_class(
    x = estimate_medincome,
    y = estimate_medrental,
    style = "quantile",
    dim = 3
  )
nj_median_household_income_and_rental

## # A tibble: 2,181 x 8
##    GEOID       NAME                   geometry estimate_medinc~ estimate_medren~
##    <chr>       <chr> <MULTIPOLYGON [arc_degre>            <dbl>            <dbl>
##  1 34021002200 Cens~ (((-74.74945 40.22568, -~            54860             1121
##  2 34021004404 Cens~ (((-74.50135 40.25484, -~           100282             1685
##  3 34021000600 Cens~ (((-74.74294 40.21703, -~            66029             1180
##  4 34021001200 Cens~ (((-74.81737 40.24094, -~            49659             1163
##  5 34025805700 Cens~ (((-74.01226 40.30434, -~            57823             1199
##  6 34025809703 Cens~ (((-74.29578 40.3226, -7~           130705             2262
##  7 34025807004 Cens~ (((-74.00926 40.23071, -~            52440             1210
##  8 34025810300 Cens~ (((-74.3717 40.29863, -7~            84091             1691
##  9 34025806504 Cens~ (((-74.05513 40.25025, -~            72267             1200
## 10 34025802500 Cens~ (((-74.23142 40.44554, -~            97232             1136
## # ... with 2,171 more rows, and 3 more variables: moe_medincome <dbl>,
## #   moe_medrental <dbl>, bi_class <chr>
…
nj_median_rental_2011_2015

## # A tibble: 21 x 6
##    GEOID NAME          variable `2011-2015 Ren~`   moe                  geometry
##    <chr> <chr>         <chr>               <dbl> <dbl> <MULTIPOLYGON [arc_degre>
##  1 34007 Camden Count~ medrent~              978    10 (((-75.13598 39.8932, -7~
##  2 34013 Essex County~ medrent~             1068     8 (((-74.37623 40.76275, -~
##  3 34019 Hunterdon Co~ medrent~             1328    36 (((-75.19511 40.57969, -~
##  4 34023 Middlesex Co~ medrent~             1299    13 (((-74.63 40.34341, -74.~
##  5 34041 Warren Count~ medrent~             1013    29 (((-75.20392 40.6915, -7~
##  6 34001 Atlantic Cou~ medrent~             1047    21 (((-74.98522 39.5148, -7~
##  7 34015 Gloucester C~ medrent~             1072    25 (((-75.4383 39.7844, -75~
##  8 34021 Mercer Count~ medrent~             1132    14 (((-74.94228 40.34089, -~
##  9 34029 Ocean County~ medrent~             1322    21 (((-74.55311 40.07913, -~
## 10 34031 Passaic Coun~ medrent~             1184    12 (((-74.50288 41.08592, -~
## # ... with 11 more rows
…
nj_median_rental_2016_2020

## # A tibble: 21 x 6
##    GEOID NAME          variable `2016-2020 Ren~`   moe                  geometry
##    <chr> <chr>         <chr>               <dbl> <dbl> <MULTIPOLYGON [arc_degre>
##  1 34041 Warren Count~ medrent~             1128    29 (((-75.20392 40.6915, -7~
##  2 34033 Salem County~ medrent~             1024    41 (((-75.41272 39.38437, -~
##  3 34005 Burlington C~ medrent~             1388    21 (((-75.05965 39.99215, -~
##  4 34021 Mercer Count~ medrent~             1311    23 (((-74.94295 40.34164, -~
##  5 34025 Monmouth Cou~ medrent~             1437    24 (((-74.61353 40.18267, -~
##  6 34017 Hudson Count~ medrent~             1450    14 (((-74.0422 40.69997, -7~
##  7 34031 Passaic Coun~ medrent~             1310    13 (((-74.50321 41.08587, -~
##  8 34027 Morris Count~ medrent~             1622    30 (((-74.88923 40.78883, -~
##  9 34013 Essex County~ medrent~             1211    11 (((-74.37623 40.76275, -~
## 10 34009 Cape May Cou~ medrent~             1176    45 (((-74.97191 38.94058, -~
## # ... with 11 more rows
…
  by = "GEOID"
) %>%
  mutate(
    `Percentage Change` = (`2016-2020 Rental` - `2011-2015 Rental`)/`2011-2015 Rental`,
    County = str_match(NAME.x, "(?<county>\\S*) County*")[, "county"]
  ) %>%
  select(
    County,
    `2011-2015 Rental`,
    `2016-2020 Rental`,
    `Percentage Change`
  )
nj_median_rental

## # A tibble: 21 x 4
##    County     `2011-2015 Rental` `2016-2020 Rental` `Percentage Change`
##    <chr>                   <dbl>              <dbl>               <dbl>
##  1 Camden                    978               1107              0.132 
##  2 Essex                    1068               1211              0.134 
##  3 Hunterdon                1328               1443              0.0866
##  4 Middlesex                1299               1495              0.151 
##  5 Warren                   1013               1128              0.114 
##  6 Atlantic                 1047               1129              0.0783
##  7 Gloucester               1072               1258              0.174 
##  8 Mercer                   1132               1311              0.158 
##  9 Ocean                    1322               1459              0.104 
## 10 Passaic                  1184               1310              0.106 
## # ... with 11 more rows
…
