Assignment 6
…
2. Download the texts of these two books from the gutenberg package.

Download Treasure Island text

treasureIslandText <- gutenberg_download(120, mirror = "http://mirrors.xmission.com/gutenberg/")
treasureIslandText

## # A tibble: 7,491 x 2
##    gutenberg_id text                                                            
##           <int> <chr>                                                           
##  1          120 "TREASURE ISLAND"                                               
##  2          120 ""                                                              
##  3          120 "by Robert Louis Stevenson"                                     
##  4          120 ""                                                              
##  5          120 ""                                                              
##  6          120 ""                                                              
##  7          120 ""                                                              
##  8          120 "TREASURE ISLAND"                                               
##  9          120 ""                                                              
## 10          120 "To S.L.O., an American gentleman in accordance with whose clas~
## # ... with 7,481 more rows

Download Kidnapped Text

kidnappedText <- gutenberg_download(421, mirror = "http://mirrors.xmission.com/gutenberg/")
kidnappedText

## # A tibble: 8,418 x 2
##    gutenberg_id text                                                        
##           <int> <chr>                                                       
##  1          421 "     KIDNAPPED"                                            
##  2          421 "     BEING"                                                
##  3          421 "     MEMOIRS OF THE ADVENTURES OF"                         
##  4          421 "     DAVID BALFOUR"                                        
##  5          421 "     IN THE YEAR 1751"                                     
##  6          421 ""                                                          
##  7          421 ""                                                          
##  8          421 ""                                                          
##  9          421 "     HOW HE WAS KIDNAPPED AND CAST AWAY; HIS SUFFERINGS IN"
## 10          421 "     A DESERT ISLE; HIS JOURNEY IN THE WILD HIGHLANDS;"    
## # ... with 8,408 more rows
…
Visualization

frequency <- bind_rows(
  mutate(tidyTreasureIslandWords, title = "Treasure Island"),
  mutate(tidyKidnappedWords, title = "Kidnapped")) %>%
  mutate(word = str_extract(word, "[a-z]+")) %>%
  count(title, word) %>%
  group_by(title) %>%
  mutate(proportion = n / sum(n)) %>%
  select(-n) %>%
  pivot_wider(names_from = "title", values_from = "proportion")
frequency

## # A tibble: 8,566 x 3
##    word       Kidnapped `Treasure Island`
##    <chr>          <dbl>             <dbl>
##  1 ab         0.0000401        NA        
##  2 aback      0.0000401         0.000135 
##  3 abandoned  0.0000401         0.0000900
##  4 abashed    0.000120         NA        
##  5 abate      0.0000401        NA        
##  6 abated     0.0000401        NA        
##  7 abhorred   0.0000401        NA        
##  8 abhorrence 0.0000401        NA        
##  9 abiding    0.0000401        NA        
## 10 ability    0.0000401        NA        
## # ... with 8,556 more rows
…
Fit the dataset with three-topic LDA model using the Gibbs method

ap_lda <- LDA(AssociatedPress, k = 3, method = "Gibbs")
ap_lda

## A LDA_Gibbs topic model with 3 topics.

Tidy the LDA output

ap_topics <- tidy(ap_lda)
ap_topics

## # A tibble: 31,419 x 3
##    topic term              beta
##    <int> <chr>            <dbl>
##  1     1 aaron      0.000000751
##  2     2 aaron      0.0000659  
##  3     3 aaron      0.000000655
##  4     1 abandon    0.000000751
##  5     2 abandon    0.000000653
##  6     3 abandon    0.0000990  
##  7     1 abandoned  0.000000751
##  8     2 abandoned  0.000255   
##  9     3 abandoned  0.00000721 
## 10     1 abandoning 0.000000751
## # ... with 31,409 more rows
…
